# Exported from 3D Builder
mtllib leather_tunnel3.mtl

o Object.1
v 5.205393 8.341128 18.465553
v 4.940118 10.557316 18.465553
v 5.033102 8.542116 25.968943
v 4.187219 10.571697 25.968943
v 2.869726 12.077582 25.968943
v 3.363501 11.634232 18.465553
v 1.263986 12.465417 18.465553
v 1.209587 13.247251 25.968943
v -0.630691 13.650290 25.968943
v -0.630691 13.504710 18.465553
v -2.469050 13.692957 18.465553
v -2.470968 13.247254 25.968943
v -4.131106 12.077592 25.968943
v -4.238856 12.016864 18.465553
v -5.732427 9.699799 18.465553
v -5.448598 10.255797 25.968943
v -6.294481 8.318038 25.968943
v -6.476024 8.036472 18.465553
v -6.585952 5.997441 25.968943
v -6.327434 5.997440 18.465553
v -5.511019 3.452751 18.465553
v -5.910838 3.452751 25.968943
v -4.665136 1.465504 25.968943
v -4.665136 1.465504 18.465553
v -3.611776 0.420695 18.465553
v -3.611776 0.420695 25.968943
v -2.385877 -0.073816 18.465553
v -2.385877 -0.073816 25.968943
v -0.630690 -0.076266 18.465553
v -0.630690 -0.076266 25.968943
v 1.209586 -0.073822 18.465553
v 1.209586 -0.073821 25.968943
v 2.869723 0.420686 25.968943
v 2.869723 0.420686 18.465553
v 4.187216 1.465492 18.465553
v 4.187216 1.465492 25.968943
v 4.881659 3.251751 18.465553
v 5.033099 3.452735 25.968943
v 4.884804 5.413784 18.465553
v 5.324569 5.997424 25.968943
v 2.637151 9.405028 10.663239
v 3.288103 7.286284 10.663239
v 1.489216 10.658306 10.663239
v 0.239447 11.522467 10.663239
v -0.959813 12.189261 10.663239
v -2.040783 11.359303 10.663239
v -2.917509 10.124897 10.663239
v -3.617883 8.868261 10.663239
v -4.908320 7.037978 10.663239
v -5.306608 5.196523 10.663239
v -4.937817 3.110862 10.663239
v -4.211561 1.699645 10.663239
v -3.341993 1.070248 10.663239
v -2.190989 0.721591 10.663239
v -0.693515 0.455479 10.663239
v 0.851731 0.094171 10.663239
v 2.053902 0.393958 10.663239
v 2.913458 1.296106 10.663239
v 3.348561 3.055457 10.663239
v 3.413050 5.196511 10.663239
v -0.132281 9.183164 -0.000004
v 0.317341 8.491220 -0.000004
v -0.630691 10.448758 -0.000004
v -1.129101 9.654476 -0.000004
v -1.578723 8.491221 -0.000004
v -1.935544 7.570516 -0.000004
v -2.404596 5.569976 -0.000004
v -2.243578 4.101927 -0.000004
v -2.164638 2.633877 -0.000004
v -1.935544 1.487420 -0.000004
v -1.578722 0.884664 -0.000004
v -1.129100 0.599376 -0.000004
v -0.630691 0.597965 -0.000004
v -0.132282 0.599375 -0.000004
v 0.317340 0.884661 -0.000004
v 0.674162 1.487416 -0.000004
v 0.903256 2.633873 -0.000004
v 0.800622 4.101923 -0.000004
v 0.903257 5.569972 -0.000004
v 0.674163 7.570512 -0.000004
v 2.869725 11.808079 34.558716
v 1.209587 12.319711 34.558716
v 2.869725 11.651870 42.541267
v 1.209587 12.076898 42.541267
v 4.187219 10.806637 34.558716
v 4.187219 10.779596 42.541267
v 4.684666 8.542115 42.541267
v 5.033102 8.542115 34.558716
v 4.317170 5.997425 42.541267
v 5.324569 5.997424 34.558716
v 4.025700 3.094442 42.541267
v 5.033099 3.452735 34.558716
v 3.179817 0.733796 42.541267
v 4.187216 1.465492 34.558716
v 2.869723 0.420686 34.558716
v 2.182193 -0.311011 42.541267
v 1.209586 -0.073821 34.558716
v 1.051214 -0.664338 42.541267
v -0.630690 -0.076266 34.558716
v -0.630690 -0.255908 42.541267
v -2.470967 -0.073816 34.558716
v -2.470967 -0.073816 42.541267
v -4.157750 0.420696 42.541267
v -4.131104 0.420696 34.558716
v -5.922479 1.465506 42.541271
v -5.448598 1.465505 34.558716
v -7.301879 3.452753 42.541271
v -6.294481 3.452751 34.558716
v -6.585952 5.997441 34.558716
v -7.367488 5.997442 42.541271
v -6.294481 8.526524 34.558716
v -6.531874 8.502791 42.541271
v -5.448598 10.073025 34.558716
v -5.451684 9.913786 42.541267
v -4.131106 10.907240 42.541267
v -4.131106 11.150053 34.558716
v -2.470968 12.319715 34.558716
v -2.470968 12.076902 42.541267
v -0.630691 12.479939 42.541267
v -0.630691 12.722753 34.558716
v 4.684666 8.542115 47.708794
v 4.187219 10.837713 47.708794
v 4.317170 5.745454 47.708794
v 4.025700 2.721039 47.708794
v 3.179817 1.107198 47.708794
v 2.182193 0.371074 47.708794
v 1.051214 -0.073820 47.708794
v -0.630690 -0.076266 47.708794
v -2.470967 -0.073816 47.708797
v -4.157750 0.420696 47.708797
v -5.922479 1.465506 47.708797
v -7.301879 3.452753 47.708801
v -7.367488 5.997442 47.708797
v -6.522762 8.542129 47.708797
v -5.448598 10.368778 47.708797
v -4.131106 11.633658 47.708794
v -2.470968 12.803319 47.708794
v -0.630691 13.206356 47.708794
v 1.209587 12.803315 47.708794
v 2.869725 12.108458 47.708794
v -4.131106 11.927825 62.766731
v -4.131106 11.633658 52.854351
v -5.448598 10.106029 62.766735
v -5.448598 10.368778 52.854355
v -2.470968 13.436147 62.766731
v -2.470968 12.803319 52.854351
v -0.630691 14.214342 62.766731
v -0.630691 13.206356 52.854351
v 1.209587 13.829178 62.766731
v 1.209587 12.803315 52.854351
v 2.869725 12.108458 52.854351
v 2.869725 12.659512 62.766731
v 4.187219 10.837713 52.854351
v 4.187219 10.837713 62.766731
v 5.033102 8.542116 62.766731
v 5.033102 8.542115 52.854351
v 5.624638 5.997424 62.766731
v 5.324569 5.997424 52.854351
v 5.904468 3.452734 62.766731
v 5.033099 3.452735 52.854351
v 4.187216 1.465492 52.854351
v 4.557524 1.465491 62.766731
v 2.869723 0.420686 52.854351
v 2.782342 0.420686 62.766731
v 1.082088 -0.073821 62.766731
v 1.209586 -0.073821 52.854351
v -0.758189 -0.076266 62.766731
v -0.630690 -0.076266 52.854351
v -2.470967 -0.073816 52.854355
v -2.513104 -0.073816 62.766735
v -4.082997 0.420696 62.766735
v -4.131104 0.420696 52.854355
v -5.448598 1.465505 52.854355
v -5.448598 1.465505 62.766735
v -5.994412 3.452751 62.766735
v -6.294481 3.452751 52.854355
v -5.714582 5.997439 62.766735
v -6.585952 5.997441 52.854355
v -6.294481 8.542129 52.854355
v -5.994412 8.237411 62.766735
v 5.033102 8.542116 67.910271
v 4.187219 10.837713 67.910271
v 5.324569 5.997424 67.910271
v 5.033099 3.452735 67.910271
v 4.187216 1.465491 67.910271
v 2.869723 0.420686 67.910278
v 1.209586 -0.073822 67.910278
v -0.630690 -0.076266 67.910278
v -2.470967 -0.073816 67.910278
v -4.131104 0.420696 67.910278
v -5.448598 1.465505 67.910278
v -6.294481 3.452751 67.910278
v -6.585952 5.997441 67.910278
v -6.294481 8.542129 67.910278
v -5.448598 10.503248 67.910278
v -4.131106 11.927825 67.910278
v -2.470968 13.436147 67.910278
v -0.630691 14.214342 67.910278
v 1.209587 13.829178 67.910271
v 2.869725 12.659512 67.910271
v 4.187429 8.542116 74.832214
v 4.145677 10.837713 74.832214
v 4.478897 5.997425 74.832214
v 5.001327 3.467212 74.832214
v 4.187216 1.696455 74.832214
v 2.869723 0.769118 74.832214
v 1.209586 0.150946 74.832214
v -0.630690 -0.051795 74.832214
v -2.520915 -0.073816 74.832214
v -4.219158 0.420696 74.832214
v -5.302393 1.465506 74.832214
v -5.863033 3.452751 74.832214
v -6.154504 5.997440 74.832214
v -6.158404 8.542127 74.832214
v -5.448598 10.837727 74.832214
v -4.131106 12.659522 74.832214
v -2.470968 13.829184 74.832214
v -0.630691 14.232220 74.832214
v 1.209587 13.829178 74.832214
v 2.869726 12.659512 74.832214
v 4.187429 8.542115 84.173523
v 4.145677 10.830654 84.173523
v 4.478897 5.997425 84.173523
v 4.745031 3.905075 84.161743
v 3.864836 2.242684 84.167236
v 2.641297 1.089343 84.180168
v 1.099024 0.395442 84.185089
v -0.640236 0.137775 84.175346
v -2.470967 -0.057988 84.173523
v -4.151066 0.420696 84.173523
v -5.532287 1.465506 84.173523
v -6.421979 3.452751 84.173523
v -6.713450 5.997441 84.173523
v -6.349063 8.542129 84.173523
v -5.448597 10.831913 84.173523
v -4.131106 12.188575 84.173523
v -2.470968 12.982961 84.173523
v -0.630691 13.385999 84.173523
v 1.209587 12.982954 84.173523
v 2.869726 12.188563 84.173523
v 5.022569 8.535956 89.751694
v 3.806174 10.199945 89.751694
v 5.324569 5.997424 89.751694
v 4.791858 3.923730 89.739899
v 3.887616 2.281069 89.745224
v 2.664077 1.127729 89.758163
v 1.114095 0.419982 89.763184
v -0.675303 0.140253 89.753525
v -2.781652 -0.057988 89.751694
v -4.658273 0.420696 89.751694
v -6.068018 1.465506 89.751694
v -6.885210 3.452752 89.751694
v -7.157996 5.997442 89.751694
v -6.491472 8.542129 89.751694
v -5.448597 10.837727 89.751694
v -4.131106 12.650180 89.751694
v -2.470968 13.582466 89.751694
v -0.641224 13.569661 89.751694
v 0.856274 12.776345 89.751694
v 2.211982 11.428654 89.751694
v -5.448598 10.829935 95.519409
v -6.537791 8.542129 95.519409
v -4.131106 12.161364 95.519409
v -2.470968 12.934744 95.519409
v -0.630691 13.337783 95.519409
v 1.209587 12.934737 95.519409
v 2.869726 12.161354 95.519409
v 4.187219 10.829921 95.519409
v 5.033102 8.542116 95.519409
v 5.324569 5.997424 95.519409
v 5.000437 3.517587 95.517715
v 4.012735 2.050007 95.515762
v 2.687631 1.167418 95.525688
v 1.138314 0.318340 95.531097
v -0.669918 -0.044845 95.521111
v -2.799136 -0.057867 95.519409
v -4.770177 0.664662 95.519409
v -6.168345 1.846451 95.519409
v -7.014228 3.833696 95.519409
v -7.305700 6.128626 95.519409
v 5.033102 8.542116 101.771683
v 4.187219 10.837713 101.771683
v 5.324569 5.997424 101.771683
v 5.033099 3.452735 101.771683
v 4.187216 1.465492 101.771683
v 2.869723 0.420686 101.771683
v 1.209586 -0.073822 101.771683
v -0.630690 -0.076266 101.771683
v -2.470967 -0.073816 101.771683
v -4.131105 0.420696 101.771683
v -5.448598 1.465506 101.771683
v -6.294481 3.452751 101.771683
v -6.585952 5.997441 101.771683
v -6.294481 8.542129 101.771683
v -5.448598 10.837727 101.771683
v -4.131106 12.659522 101.771683
v -2.470968 13.829184 101.771683
v -0.630691 14.232220 101.771683
v 1.209587 13.829178 101.771683
v 2.869726 12.659512 101.771683
v 5.033102 8.542116 106.214294
v 4.187219 10.837714 106.214294
v 5.324569 5.997424 106.214294
v 5.033099 3.452735 106.214294
v 4.187216 1.465492 106.214294
v 2.869723 0.420686 106.214294
v 1.209586 -0.073822 106.214294
v -0.630690 -0.076266 106.214294
v -2.470967 -0.073816 106.214294
v -4.131105 0.420696 106.214294
v -5.448598 1.465505 106.214294
v -6.294481 3.452751 106.214294
v -6.585952 5.997441 106.214294
v -6.294481 8.542129 106.214294
v -5.448598 10.837727 106.214294
v -4.131106 12.659522 106.214294
v -2.470968 13.829184 106.214294
v -0.630691 14.232220 106.214294
v 1.209587 13.829178 106.214294
v 2.869726 12.659512 106.214294

vt 0.544125 0.883986
vt 0.545799 0.978225
vt 0.553492 0.977306

usemtl Mat_0
f 44/1 61/2 63/3

vt 0.349351 0.546088
vt 0.038960 0.442184
vt 0.373384 0.442184
vt 0.349351 0.599795
vt 0.373384 0.388456
vt 0.400972 0.334037
vt 0.356524 0.161740
vt 0.339265 0.083676
vt 0.391750 0.250841
vt 0.334424 0.672321
vt 0.366562 0.769321
vt 0.032137 0.769321
vt 0.000000 0.672321
vt 0.026989 0.827684
vt 0.343794 0.827947
vt 0.033969 0.887759
vt 0.368393 0.887759
vt 0.334424 0.953612
vt 0.334424 1.000000
vt 0.000000 0.953612
vt 0.000000 1.000000
vt 0.038960 0.388456
vt 0.066548 0.334037
vt 0.057326 0.250841
vt 0.022100 0.161740
vt 0.027629 0.083300
vt 0.134659 0.001040

usemtl Mat_0
f 10/29 11/11 9/28
f 11/11 12/10 9/28
f 45/30 11/11 10/29
f 119/26 120/27 118/9
f 118/9 120/27 117/12
f 9/28 12/10 120/27
f 12/10 117/12 120/27
f 119/26 118/9 138/25
f 118/9 137/8 138/25
f 145/4 148/5 146/6
f 138/25 137/8 148/5
f 137/8 146/6 148/5
f 197/7 217/13 218/16
f 218/16 217/13 238/15
f 217/13 237/14 238/15
f 238/15 237/14 258/17
f 237/14 257/18 258/17
f 258/17 257/18 265/19
f 257/18 264/20 265/19
f 265/19 264/20 298/23
f 264/20 297/21 298/23
f 298/23 297/21 318/24
f 297/21 317/22 318/24

vt 0.615350 0.899333
vt 0.619315 0.704573
vt 0.799990 0.639444
vt 0.712030 0.400850
vt 0.614553 0.958187
vt 0.799990 0.958140
vt 0.796619 0.899125
vt 0.614951 0.845016
vt 0.612843 0.792522
vt 0.790082 0.792364
vt 0.807371 0.704490
vt 0.965867 0.704296
vt 1.000000 0.590828
vt 0.790781 0.591029
vt 0.960974 0.497513
vt 0.799990 0.497741
vt 0.847214 0.449130
vt 0.726481 0.449286
vt 0.713445 0.100607
vt 0.540827 0.000002
vt 0.487398 0.000059
vt 0.946678 0.844466
vt 0.793296 0.844853
vt 0.954969 0.898852
vt 0.960974 0.957912
vt 0.799990 0.999953
vt 0.960974 0.999725

usemtl Mat_0
f 75/50 57/49 74/51
f 126/48 96/34 125/47
f 163/46 161/45 164/44
f 161/45 162/43 164/44
f 126/48 125/47 163/46
f 125/47 161/45 163/46
f 164/44 162/43 186/33
f 206/41 186/33 205/42
f 206/41 205/42 226/40
f 227/39 207/32 226/40
f 227/39 226/40 247/38
f 226/40 246/53 247/38
f 245/52 272/54 273/37
f 274/31 247/38 273/37
f 273/37 247/38 246/53
f 286/36 273/37 285/55
f 285/55 273/37 272/54
f 274/31 273/37 287/35
f 286/36 285/55 306/56
f 285/55 305/57 306/56

vt 0.518644 0.188553
vt 0.301145 0.188553
vt 0.483398 0.110615
vt 0.292512 0.257702
vt 0.114344 0.187025
vt 0.143982 0.255694
vt 0.354021 0.335712
vt 0.481761 0.337094
vt 0.492452 0.410600
vt 0.370123 0.409093
vt 0.221593 0.407084
vt 0.205491 0.333704
vt 0.173421 0.455849
vt 0.321951 0.457858
vt 0.462148 0.458971
vt 0.321951 0.505383
vt 0.462148 0.506496
vt 0.479572 0.597671
vt 0.302443 0.597354
vt 0.173421 0.503374
vt 0.131456 0.595829
vt 0.131456 0.643335
vt 0.302443 0.644860
vt 0.453231 0.645745
vt 0.431050 0.710154
vt 0.253921 0.709837
vt 0.105392 0.707828
vt 0.285152 0.795440
vt 0.431435 0.796422
vt 0.613622 0.708447
vt 0.619439 0.644818
vt 0.626819 0.596211
vt 0.619439 0.505761
vt 0.834055 0.456979
vt 0.629197 0.458742
vt 0.632195 0.410979
vt 0.620474 0.336759
vt 0.634300 0.257126
vt 0.469640 0.258020
vt 0.660732 0.187824
vt 0.659933 0.110860
vt 0.497544 0.006546
vt 0.421235 0.007070
vt 0.370127 0.110858
vt 0.250792 0.110678
vt 0.149546 0.109468
vt 0.250898 0.007766
vt 0.324875 0.007736
vt 0.800648 0.333792
vt 0.834055 0.409251
vt 0.621772 0.795147
vt 0.627860 0.846982
vt 0.825100 0.844824
vt 0.629839 0.900356
vt 0.431566 0.901210
vt 0.431050 0.847951
vt 0.254541 0.847620
vt 0.286956 0.900192
vt 0.121752 0.845272
vt 0.161508 0.792895
vt 0.164706 0.897618
vt 0.253921 0.958650
vt 0.105391 0.956642
vt 0.105391 0.997674
vt 0.253921 0.999683
vt 0.431050 0.958968
vt 0.619439 0.957563
vt 0.822714 0.898610
vt 0.619439 0.998595
vt 0.431050 1.000000
vt 0.001186 0.592862
vt 0.068030 0.499871
vt 0.001186 0.640368
vt 0.000000 0.704325

usemtl Mat_0
f 12/63 11/62 13/61
f 13/61 11/62 14/59
f 14/59 15/58 13/61
f 15/58 16/96 13/61
f 16/96 15/58 17/95
f 17/95 15/58 18/97
f 46/102 11/62 45/103
f 14/59 11/62 47/101
f 11/62 46/102 47/101
f 15/58 14/59 48/60
f 14/59 47/101 48/60
f 18/97 15/58 49/98
f 15/58 48/60 49/98
f 64/105 46/102 63/104
f 63/104 46/102 45/103
f 65/100 47/101 64/105
f 64/105 47/101 46/102
f 66/99 48/60 65/100
f 65/100 48/60 47/101
f 66/99 49/98 48/60
f 109/106 110/107 112/93
f 113/65 111/94 114/66
f 111/94 112/93 114/66
f 115/67 116/64 114/66
f 114/66 116/64 113/65
f 117/69 116/64 118/68
f 116/64 115/67 118/68
f 16/96 17/95 113/65
f 17/95 111/94 113/65
f 116/64 13/61 113/65
f 113/65 13/61 16/96
f 117/69 12/63 116/64
f 116/64 12/63 13/61
f 134/92 112/93 133/91
f 133/91 112/93 110/107
f 135/72 114/66 134/92
f 134/92 114/66 112/93
f 136/71 115/67 135/72
f 135/72 115/67 114/66
f 118/68 115/67 137/70
f 115/67 136/71 137/70
f 141/76 142/73 143/75
f 143/75 142/73 144/74
f 145/78 146/77 141/76
f 141/76 146/77 142/73
f 147/128 148/129 145/78
f 144/74 179/90 143/75
f 134/92 133/91 179/90
f 135/72 134/92 144/74
f 134/92 179/90 144/74
f 136/71 135/72 142/73
f 135/72 144/74 142/73
f 137/70 136/71 146/77
f 136/71 142/73 146/77
f 180/89 194/88 195/81
f 141/76 143/75 196/80
f 143/75 195/81 196/80
f 145/78 141/76 197/79
f 141/76 196/80 197/79
f 198/130 147/128 197/79
f 197/79 147/128 145/78
f 215/82 195/81 214/87
f 214/87 195/81 194/88
f 216/83 196/80 215/82
f 215/82 196/80 195/81
f 197/79 196/80 217/84
f 196/80 216/83 217/84
f 198/130 197/79 218/131
f 215/82 214/87 235/86
f 214/87 234/108 235/86
f 236/85 216/83 235/86
f 235/86 216/83 215/82
f 237/117 217/84 236/85
f 236/85 217/84 216/83
f 235/86 234/108 255/113
f 234/108 254/109 255/113
f 256/114 236/85 255/113
f 255/113 236/85 235/86
f 257/116 237/117 256/114
f 256/114 237/117 236/85
f 255/113 254/109 261/112
f 254/109 262/111 261/112
f 263/115 256/114 261/112
f 261/112 256/114 255/113
f 264/118 257/116 263/115
f 263/115 257/116 256/114
f 253/110 280/125 262/111
f 262/111 280/125 294/124
f 261/112 262/111 295/123
f 262/111 294/124 295/123
f 296/119 263/115 295/123
f 295/123 263/115 261/112
f 297/120 264/118 296/119
f 296/119 264/118 263/115
f 295/123 294/124 315/127
f 294/124 314/126 315/127
f 296/119 295/123 316/122
f 295/123 315/127 316/122
f 297/120 296/119 317/121
f 296/119 316/122 317/121

vt 0.798061 0.247271
vt 0.769661 0.328352
vt 0.569763 0.328352
vt 0.752483 0.403518
vt 0.533246 0.403904
vt 0.533246 0.452341
vt 0.769661 0.499842
vt 0.769661 0.592754
vt 0.769661 0.640966
vt 0.774961 0.705741
vt 0.766628 0.793466
vt 0.747208 0.846140
vt 0.711129 0.900157
vt 0.769661 0.958358
vt 0.769661 1.000000
vt 0.798061 0.176939
vt 0.794563 0.103406
vt 0.959406 0.001801
vt 0.569763 0.499842
vt 0.580641 0.592537
vt 0.342490 0.499269
vt 0.374077 0.591550
vt 0.173175 0.591063
vt 0.136348 0.498274
vt 0.314160 0.451604
vt 0.314160 0.403167
vt 0.342490 0.327779
vt 0.583670 0.247560
vt 0.342490 0.247265
vt 0.598163 0.176939
vt 0.351861 0.176746
vt 0.172829 0.176226
vt 0.155432 0.246339
vt 0.137677 0.326789
vt 0.131093 0.401791
vt 0.457072 0.103121
vt 0.314690 0.102265
vt 0.530464 0.000956
vt 0.377099 0.000000
vt 0.661321 0.001292
vt 0.789203 0.001687
vt 0.648057 0.103496
vt 0.895141 0.001874
vt 0.033828 0.590092
vt 0.000000 0.638181
vt 0.136348 0.639398
vt 0.342490 0.640393
vt 0.569763 0.640966
vt 0.585403 0.705535
vt 0.565142 0.793498
vt 0.358130 0.704962
vt 0.141281 0.704180
vt 0.134369 0.791877
vt 0.337868 0.792925
vt 0.321754 0.845532
vt 0.548350 0.846119
vt 0.511232 0.900157
vt 0.305228 0.899661
vt 0.342490 0.957785
vt 0.569763 0.958358
vt 0.569763 1.000000
vt 0.342490 0.999427
vt 0.136348 0.998432
vt 0.136348 0.956790
vt 0.129207 0.844266
vt 0.127528 0.898362

usemtl Mat_0
f 17/164 18/163 19/160
f 19/160 18/163 20/162
f 20/162 21/161 19/160
f 21/161 22/159 19/160
f 22/159 21/161 23/132
f 23/132 21/161 24/147
f 20/162 18/163 50/167
f 18/163 49/168 50/167
f 21/161 20/162 51/173
f 20/162 50/167 51/173
f 24/147 21/161 52/148
f 21/161 51/173 52/148
f 67/169 49/168 66/170
f 68/171 50/167 67/169
f 67/169 50/167 49/168
f 51/173 50/167 69/172
f 50/167 68/171 69/172
f 52/148 51/173 70/174
f 51/173 69/172 70/174
f 52/148 70/174 71/149
f 105/135 108/134 106/133
f 109/158 108/134 110/157
f 108/134 107/136 110/157
f 111/165 109/158 112/166
f 22/159 23/132 108/134
f 23/132 106/133 108/134
f 19/160 22/159 109/158
f 22/159 108/134 109/158
f 111/165 17/164 109/158
f 109/158 17/164 19/160
f 110/157 107/136 133/156
f 107/136 132/137 133/156
f 175/151 176/150 174/139
f 174/139 176/150 173/138
f 177/153 178/152 175/151
f 175/151 178/152 176/150
f 179/155 178/152 180/154
f 178/152 177/153 180/154
f 179/155 180/154 143/175
f 176/150 132/137 173/138
f 133/156 132/137 178/152
f 132/137 176/150 178/152
f 133/156 178/152 179/155
f 192/179 175/151 191/140
f 191/140 175/151 174/139
f 193/178 177/153 192/179
f 192/179 177/153 175/151
f 180/154 177/153 194/177
f 177/153 193/178 194/177
f 143/175 180/154 195/176
f 212/180 192/179 211/141
f 211/141 192/179 191/140
f 213/182 193/178 212/180
f 212/180 193/178 192/179
f 194/177 193/178 214/183
f 193/178 213/182 214/183
f 232/181 212/180 231/142
f 231/142 212/180 211/141
f 233/185 213/182 232/181
f 232/181 213/182 212/180
f 214/183 213/182 234/184
f 213/182 233/185 234/184
f 232/181 231/142 252/187
f 231/142 251/143 252/187
f 233/185 232/181 253/186
f 232/181 252/187 253/186
f 234/184 233/185 254/196
f 233/185 253/186 254/196
f 279/188 252/187 278/144
f 278/144 252/187 251/143
f 253/186 252/187 280/189
f 252/187 279/188 280/189
f 254/196 253/186 262/197
f 279/188 278/144 292/191
f 278/144 291/145 292/191
f 280/189 279/188 293/190
f 279/188 292/191 293/190
f 280/189 293/190 294/195
f 292/191 291/145 312/192
f 291/145 311/146 312/192
f 293/190 292/191 313/193
f 292/191 312/192 313/193
f 294/195 293/190 314/194
f 293/190 313/193 314/194

vt 0.363290 0.181914
vt 0.153545 0.106706
vt 0.383766 0.252024
vt 0.122415 0.003491
vt 0.063075 0.003144
vt 0.057816 0.105643
vt 0.195143 0.181491
vt 0.077438 0.179721
vt 0.077438 0.249661
vt 0.195143 0.251431
vt 0.077438 0.329728
vt 0.195143 0.331498
vt 0.000000 0.403287
vt 0.110912 0.404523
vt 0.142979 0.452535
vt 0.383766 0.332090
vt 0.331602 0.404961
vt 0.299535 0.453282
vt 0.195143 0.502033
vt 0.383766 0.502626
vt 0.203008 0.595047
vt 0.402272 0.596476
vt 0.195143 0.642371
vt 0.383766 0.642964
vt 0.384335 0.707425
vt 0.214978 0.706796
vt 0.416494 0.793777
vt 0.255039 0.793044
vt 0.130008 0.791597
vt 0.258820 0.845060
vt 0.419090 0.845842
vt 0.241634 0.899152
vt 0.388642 0.900215
vt 0.383766 0.958590
vt 0.195143 0.957997
vt 0.195143 0.999408
vt 0.383766 1.000000
vt 0.133789 0.843612
vt 0.137697 0.897395
vt 0.077438 0.640601

usemtl Mat_0
f 34/205 35/204 33/206
f 35/204 36/207 33/206
f 35/204 37/198 36/207
f 37/198 38/200 36/207
f 58/199 35/204 57/203
f 57/203 35/204 34/205
f 76/201 58/199 75/202
f 75/202 58/199 57/203
f 93/211 94/209 91/214
f 91/214 94/209 92/213
f 95/208 94/209 96/210
f 94/209 93/211 96/210
f 36/207 38/200 94/209
f 38/200 92/213 94/209
f 33/206 36/207 95/208
f 36/207 94/209 95/208
f 93/211 91/214 125/212
f 91/214 124/215 125/212
f 125/212 96/210 93/211
f 161/216 160/217 162/218
f 160/217 159/219 162/218
f 125/212 124/215 161/216
f 124/215 160/217 161/216
f 162/218 159/219 185/220
f 159/219 184/221 185/220
f 162/218 185/220 186/237
f 205/223 185/220 204/222
f 204/222 185/220 184/221
f 205/223 186/237 185/220
f 225/225 205/223 224/224
f 224/224 205/223 204/222
f 205/223 225/225 226/226
f 225/225 224/224 245/227
f 224/224 244/228 245/227
f 246/235 226/226 245/227
f 245/227 226/226 225/225
f 245/227 244/228 272/229
f 244/228 271/230 272/229
f 246/235 245/227 273/236
f 285/232 272/229 284/231
f 284/231 272/229 271/230
f 285/232 284/231 305/233
f 284/231 304/234 305/233

vt 0.367858 0.325512
vt 0.414751 0.244633
vt 0.531061 0.325512
vt 0.531061 0.400651
vt 0.697296 0.325427
vt 0.538745 0.244653
vt 0.697296 0.244572
vt 0.697296 0.173943
vt 0.538745 0.174024
vt 0.677321 0.100421
vt 0.534948 0.100449
vt 0.421640 0.100448
vt 0.414751 0.174004
vt 0.326194 0.100390
vt 0.291536 0.173890
vt 0.291536 0.244519
vt 0.220793 0.325410
vt 0.365452 0.400652
vt 0.178004 0.400571
vt 0.178004 0.449213
vt 0.365452 0.449294
vt 0.531061 0.449292
vt 0.702127 0.400594
vt 0.863398 0.325341
vt 0.863398 0.244486
vt 1.000000 0.244332
vt 0.863398 0.173857
vt 0.826567 0.100405
vt 0.679161 0.000023
vt 0.634119 0.000046
vt 0.585847 0.000023
vt 0.724127 0.000000
vt 0.927054 0.100303
vt 1.000000 0.173703
vt 1.000000 0.325187
vt 0.864981 0.400579
vt 0.957599 0.400472
vt 0.849098 0.449129
vt 0.939254 0.449007
vt 0.863398 0.497556
vt 1.000000 0.497402
vt 0.992110 0.590711
vt 0.851886 0.590867
vt 0.697296 0.497642
vt 0.685783 0.590953
vt 0.527257 0.591034
vt 0.531061 0.497727
vt 0.697296 0.449207
vt 0.367858 0.497727
vt 0.372202 0.591029
vt 0.220793 0.590930
vt 0.220793 0.497626
vt 0.000000 0.448967
vt 0.000000 0.400326
vt 0.090963 0.325140
vt 0.220793 0.639346
vt 0.367858 0.639447
vt 0.359907 0.704607
vt 0.233994 0.704495
vt 0.366056 0.792533
vt 0.213236 0.792434
vt 0.320257 0.845063
vt 0.164862 0.844966
vt 0.303591 0.899322
vt 0.501000 0.899343
vt 0.502582 0.845051
vt 0.530636 0.792529
vt 0.526551 0.704605
vt 0.531061 0.639447
vt 0.697296 0.639362
vt 0.863398 0.639277
vt 1.000000 0.639123
vt 0.857353 0.704397
vt 0.990628 0.704224
vt 0.961390 0.792176
vt 0.696637 0.704514
vt 0.690677 0.792431
vt 0.840793 0.792402
vt 0.841494 0.844904
vt 0.687444 0.844939
vt 0.692908 0.899258
vt 0.846415 0.899212
vt 0.697296 0.958097
vt 0.863398 0.958011
vt 0.697296 0.999915
vt 0.863398 0.999829
vt 1.000000 0.957857
vt 0.963473 0.898957
vt 1.000000 0.999675
vt 0.531061 1.000000
vt 0.531061 0.958182
vt 0.367858 0.958182
vt 0.367858 1.000000
vt 0.145557 0.899202
vt 0.220793 0.958080
vt 0.220793 0.999898

usemtl Mat_0
f 24/252 25/250 23/253
f 25/250 26/239 23/253
f 25/250 27/246 26/239
f 27/246 28/243 26/239
f 27/246 29/245 28/243
f 29/245 30/244 28/243
f 29/245 31/264 30/244
f 31/264 32/262 30/244
f 32/262 31/264 33/263
f 33/263 31/264 34/271
f 53/249 25/250 52/251
f 52/251 25/250 24/252
f 54/248 27/246 53/249
f 53/249 27/246 25/250
f 29/245 27/246 55/247
f 27/246 54/248 55/247
f 31/264 29/245 56/265
f 29/245 55/247 56/265
f 57/270 34/271 56/265
f 56/265 34/271 31/264
f 53/249 52/251 71/268
f 54/248 53/249 72/267
f 53/249 71/268 72/267
f 55/247 54/248 73/266
f 54/248 72/267 73/266
f 74/269 56/265 73/266
f 73/266 56/265 55/247
f 74/269 57/270 56/265
f 97/261 95/272 98/273
f 95/272 96/274 98/273
f 99/242 97/261 100/260
f 97/261 98/273 100/260
f 101/240 99/242 102/241
f 99/242 100/260 102/241
f 103/255 104/238 102/241
f 102/241 104/238 101/240
f 105/256 106/254 103/255
f 103/255 106/254 104/238
f 107/291 108/292 105/256
f 32/262 33/263 97/261
f 33/263 95/272 97/261
f 30/244 32/262 99/242
f 32/262 97/261 99/242
f 101/240 28/243 99/242
f 99/242 28/243 30/244
f 104/238 26/239 101/240
f 101/240 26/239 28/243
f 106/254 23/253 104/238
f 104/238 23/253 26/239
f 98/273 96/274 127/275
f 96/274 126/276 127/275
f 100/260 98/273 128/285
f 98/273 127/275 128/285
f 102/241 100/260 129/259
f 100/260 128/285 129/259
f 103/255 102/241 130/258
f 102/241 129/259 130/258
f 105/256 103/255 131/257
f 103/255 130/258 131/257
f 132/290 107/291 131/257
f 131/257 107/291 105/256
f 165/280 166/277 164/279
f 164/279 166/277 163/278
f 167/282 168/281 165/280
f 165/280 168/281 166/277
f 169/284 168/281 170/283
f 168/281 167/282 170/283
f 171/287 172/286 170/283
f 170/283 172/286 169/284
f 173/289 172/286 174/288
f 172/286 171/287 174/288
f 127/275 126/276 166/277
f 126/276 163/278 166/277
f 128/285 127/275 168/281
f 127/275 166/277 168/281
f 129/259 128/285 169/284
f 128/285 168/281 169/284
f 172/286 130/258 169/284
f 169/284 130/258 129/259
f 173/289 131/257 172/286
f 172/286 131/257 130/258
f 173/289 132/290 131/257
f 187/308 165/280 186/309
f 186/309 165/280 164/279
f 188/307 167/282 187/308
f 187/308 167/282 165/280
f 170/283 167/282 189/306
f 167/282 188/307 189/306
f 190/294 171/287 189/306
f 189/306 171/287 170/283
f 174/288 171/287 191/293
f 171/287 190/294 191/293
f 187/308 186/309 207/310
f 186/309 206/311 207/310
f 188/307 187/308 208/313
f 187/308 207/310 208/313
f 209/305 189/306 208/313
f 208/313 189/306 188/307
f 210/295 190/294 209/305
f 209/305 190/294 189/306
f 211/296 191/293 210/295
f 210/295 191/293 190/294
f 226/312 207/310 206/311
f 208/313 207/310 228/314
f 207/310 227/315 228/314
f 209/305 208/313 229/304
f 208/313 228/314 229/304
f 230/297 210/295 229/304
f 229/304 210/295 209/305
f 231/298 211/296 230/297
f 230/297 211/296 210/295
f 248/317 228/314 247/316
f 247/316 228/314 227/315
f 249/303 229/304 248/317
f 248/317 229/304 228/314
f 250/299 230/297 249/303
f 249/303 230/297 229/304
f 251/300 231/298 250/299
f 250/299 231/298 230/297
f 275/318 248/317 274/319
f 274/319 248/317 247/316
f 249/303 248/317 276/302
f 248/317 275/318 276/302
f 277/301 250/299 276/302
f 276/302 250/299 249/303
f 278/331 251/300 277/301
f 277/301 251/300 250/299
f 273/325 286/324 287/321
f 275/318 274/319 288/320
f 274/319 287/321 288/320
f 289/328 276/302 288/320
f 288/320 276/302 275/318
f 290/329 277/301 289/328
f 289/328 277/301 276/302
f 291/332 278/331 290/329
f 290/329 278/331 277/301
f 287/321 286/324 307/323
f 286/324 306/326 307/323
f 288/320 287/321 308/322
f 287/321 307/323 308/322
f 289/328 288/320 309/327
f 288/320 308/322 309/327
f 290/329 289/328 310/330
f 289/328 309/327 310/330
f 311/333 291/332 310/330
f 310/330 291/332 290/329

vt 0.725572 0.111146
vt 0.763916 0.190864
vt 0.525660 0.111146
vt 0.565819 0.189669
vt 0.587711 0.258670
vt 0.785099 0.258031
vt 0.805354 0.337593
vt 0.803023 0.411314
vt 0.587710 0.338025
vt 0.596940 0.410768
vt 0.360597 0.336615
vt 0.387282 0.407464
vt 0.148926 0.333530
vt 0.144720 0.404063
vt 0.365558 0.454981
vt 0.596940 0.458507
vt 0.587711 0.507045
vt 0.360597 0.505636
vt 0.587711 0.598619
vt 0.808034 0.598214
vt 0.808034 0.506641
vt 0.808034 0.459105
vt 0.587711 0.646136
vt 0.808034 0.645732
vt 0.809134 0.709560
vt 0.610111 0.707652
vt 0.382998 0.706243
vt 0.360598 0.644727
vt 0.352649 0.598072
vt 0.125844 0.596629
vt 0.148926 0.502550
vt 0.112526 0.451472
vt 0.148926 0.641641
vt 0.151015 0.705510
vt 0.382998 0.792540
vt 0.610111 0.793950
vt 0.808525 0.795851
vt 0.763141 0.845851
vt 0.587459 0.847878
vt 0.360598 0.846504
vt 0.360598 0.899788
vt 0.587711 0.901197
vt 0.360598 0.957548
vt 0.587711 0.958958
vt 0.807362 0.900786
vt 0.808034 0.958554
vt 0.587711 1.000000
vt 0.808034 0.999596
vt 0.360598 0.998590
vt 0.148926 0.995505
vt 0.148926 0.954463
vt 0.155382 0.896650
vt 0.195923 0.843032
vt 0.195555 0.791349
vt 0.360597 0.257260
vt 0.321927 0.186162
vt 0.148926 0.254175
vt 0.135609 0.184244
vt 0.342179 0.109659
vt 0.159295 0.107583
vt 0.019136 0.104778
vt -0.000000 0.180670
vt 0.094946 0.000000
vt 0.187720 0.001671
vt 0.317008 0.002673
vt 0.440858 0.004264
vt 0.619405 0.005373
vt 0.708236 0.005160

usemtl Mat_0
f 1/337 2/335 3/338
f 2/335 4/339 3/338
f 37/391 39/389 38/390
f 39/389 40/388 38/390
f 40/388 39/389 3/338
f 3/338 39/389 1/337
f 41/334 2/335 42/336
f 42/336 2/335 1/337
f 59/393 37/391 58/394
f 58/394 37/391 35/395
f 39/389 37/391 60/392
f 37/391 59/393 60/392
f 42/336 1/337 60/392
f 60/392 1/337 39/389
f 77/397 59/393 76/396
f 76/396 59/393 58/394
f 78/398 60/392 77/397
f 77/397 60/392 59/393
f 79/399 42/336 78/398
f 78/398 42/336 60/392
f 41/334 42/336 80/400
f 42/336 79/399 80/400
f 41/334 80/400 62/401
f 87/343 88/342 86/341
f 86/341 88/342 85/340
f 89/345 90/344 87/343
f 87/343 90/344 88/342
f 91/347 92/346 89/345
f 89/345 92/346 90/344
f 3/338 4/339 88/342
f 4/339 85/340 88/342
f 40/388 3/338 90/344
f 3/338 88/342 90/344
f 38/390 40/388 92/346
f 40/388 90/344 92/346
f 87/343 86/341 121/349
f 86/341 122/355 121/349
f 123/348 89/345 121/349
f 121/349 89/345 87/343
f 124/365 91/347 123/348
f 123/348 91/347 89/345
f 155/352 156/350 154/353
f 154/353 156/350 153/354
f 157/362 158/351 155/352
f 155/352 158/351 156/350
f 159/363 160/364 157/362
f 157/362 160/364 158/351
f 156/350 121/349 153/354
f 153/354 121/349 122/355
f 158/351 123/348 156/350
f 156/350 123/348 121/349
f 160/364 124/365 158/351
f 158/351 124/365 123/348
f 155/352 154/353 181/356
f 154/353 182/357 181/356
f 183/361 157/362 181/356
f 181/356 157/362 155/352
f 184/366 159/363 183/361
f 183/361 159/363 157/362
f 201/359 181/356 202/358
f 202/358 181/356 182/357
f 183/361 181/356 203/360
f 181/356 201/359 203/360
f 184/366 183/361 204/367
f 183/361 203/360 204/367
f 201/359 202/358 221/369
f 202/358 222/370 221/369
f 203/360 201/359 223/368
f 201/359 221/369 223/368
f 224/387 204/367 223/368
f 223/368 204/367 203/360
f 241/372 221/369 242/371
f 242/371 221/369 222/370
f 243/373 223/368 241/372
f 241/372 223/368 221/369
f 224/387 223/368 244/386
f 223/368 243/373 244/386
f 241/372 242/371 269/375
f 242/371 268/378 269/375
f 243/373 241/372 270/374
f 241/372 269/375 270/374
f 271/385 244/386 270/374
f 270/374 244/386 243/373
f 269/375 268/378 281/377
f 268/378 282/379 281/377
f 270/374 269/375 283/376
f 269/375 281/377 283/376
f 284/384 271/385 283/376
f 283/376 271/385 270/374
f 281/377 282/379 301/380
f 282/379 302/381 301/380
f 283/376 281/377 303/382
f 281/377 301/380 303/382
f 284/384 283/376 304/383
f 283/376 303/382 304/383

vt 0.382564 0.498439
vt 0.657003 0.498439
vt 0.415008 0.591771
vt 0.657003 0.450117
vt 0.939600 0.449954
vt 0.614233 0.401266
vt 0.382564 0.450117
vt 0.355681 0.401385
vt 0.628530 0.326409
vt 0.364878 0.326490
vt 0.683140 0.246154
vt 0.911127 0.326246
vt 0.896831 0.401102
vt 0.965738 0.245991
vt 0.629456 0.175352
vt 0.957166 0.175462
vt 0.926013 0.101544
vt 0.718057 0.101471
vt 0.285185 0.175373
vt 0.380746 0.245943
vt 0.000000 0.175188
vt 0.106755 0.245519
vt 0.120588 0.326291
vt 0.118996 0.401243
vt 0.122417 0.449797
vt 0.122417 0.498119
vt 0.122417 0.591207
vt 0.415008 0.640074
vt 0.717403 0.591982
vt 0.717403 0.640285
vt 0.717403 0.705290
vt 0.415008 0.705079
vt 0.122417 0.639510
vt 0.128261 0.704507
vt 0.127845 0.792228
vt 0.387280 0.792594
vt 0.667579 0.792638
vt 0.950177 0.792475
vt 1.000000 0.705126
vt 0.998947 0.640114
vt 0.998947 0.591811
vt 0.939600 0.498276
vt 0.962472 0.844940
vt 0.705115 0.844866
vt 0.435062 0.844519
vt 0.138468 0.844270
vt 0.121959 0.898785
vt 0.385678 0.899132
vt 0.664740 0.899166
vt 0.415008 0.958068
vt 0.717403 0.958279
vt 0.415008 0.999789
vt 0.717403 1.000000
vt 0.122417 0.957504
vt 0.122418 0.999225
vt 0.947338 0.899003
vt 1.000000 0.958116
vt 1.000000 0.999837
vt 0.491376 0.101320
vt 0.256110 0.100976
vt 0.528629 0.000000
vt 0.632616 0.000224
vt 0.777241 0.000693

usemtl Mat_0
f 4/423 2/422 5/421
f 5/421 2/422 6/420
f 6/420 7/416 5/421
f 7/416 8/412 5/421
f 8/412 7/416 9/415
f 9/415 7/416 10/417
f 6/420 2/422 43/460
f 2/422 41/461 43/460
f 7/416 6/420 44/419
f 6/420 43/460 44/419
f 10/417 7/416 45/418
f 7/416 44/419 45/418
f 44/419 43/460 61/463
f 43/460 62/462 61/463
f 45/418 44/419 63/464
f 43/460 41/461 62/462
f 81/411 82/410 83/409
f 82/410 84/407 83/409
f 85/424 81/411 86/425
f 81/411 83/409 86/425
f 82/410 120/413 84/407
f 120/413 119/414 84/407
f 82/410 8/412 120/413
f 120/413 8/412 9/415
f 5/421 8/412 81/411
f 8/412 82/410 81/411
f 4/423 5/421 85/424
f 5/421 81/411 85/424
f 139/405 84/407 138/406
f 138/406 84/407 119/414
f 83/409 84/407 140/408
f 84/407 139/405 140/408
f 86/425 83/409 122/426
f 83/409 140/408 122/426
f 149/430 150/403 147/442
f 147/442 150/403 148/443
f 151/402 150/403 152/404
f 150/403 149/430 152/404
f 153/427 151/402 154/428
f 151/402 152/404 154/428
f 139/405 138/406 150/403
f 138/406 148/443 150/403
f 140/408 139/405 151/402
f 139/405 150/403 151/402
f 153/427 122/426 151/402
f 151/402 122/426 140/408
f 149/430 147/442 199/431
f 147/442 198/441 199/431
f 152/404 149/430 200/429
f 149/430 199/431 200/429
f 182/434 154/428 200/429
f 200/429 154/428 152/404
f 199/431 198/441 219/432
f 198/441 218/440 219/432
f 220/433 200/429 219/432
f 219/432 200/429 199/431
f 202/435 182/434 220/433
f 220/433 182/434 200/429
f 239/438 219/432 238/439
f 238/439 219/432 218/440
f 220/433 219/432 240/437
f 219/432 239/438 240/437
f 202/435 220/433 222/436
f 220/433 240/437 222/436
f 259/445 239/438 258/444
f 258/444 239/438 238/439
f 260/446 240/437 259/445
f 259/445 240/437 239/438
f 222/436 240/437 242/447
f 240/437 260/446 242/447
f 266/450 259/445 265/457
f 265/457 259/445 258/444
f 267/449 260/446 266/450
f 266/450 260/446 259/445
f 242/447 260/446 268/448
f 260/446 267/449 268/448
f 299/452 266/450 298/458
f 298/458 266/450 265/457
f 267/449 266/450 300/451
f 266/450 299/452 300/451
f 268/448 267/449 282/455
f 267/449 300/451 282/455
f 299/452 298/458 319/454
f 298/458 318/459 319/454
f 300/451 299/452 320/453
f 299/452 319/454 320/453
f 302/456 282/455 320/453
f 320/453 282/455 300/451

