# This file uses centimeters as units for non-parametric coordinates.

mtllib round3b4.mtl
g default
v -108.200110 0.397293 -33.453415
v -67.122599 0.397293 -100.296669
v -108.200110 40.397293 -33.453415
v -70.029276 40.397293 -102.082923
v -111.106786 0.397293 -35.239669
v -111.106786 40.397293 -35.239669
v -70.029276 0.397293 -102.082923
v -67.122599 40.397293 -100.296669
vn 0.851981 0.000000 0.523572
vn 0.851981 0.000000 0.523572
vn 0.851981 0.000000 0.523572
vn -0.523572 0.000000 0.851981
vn -0.523572 0.000000 0.851981
vn -0.523572 0.000000 0.851981
vn -0.523572 0.000000 0.851981
vn -0.523572 0.000000 0.851981
vn -0.523572 0.000000 0.851981
vn -0.851981 0.000000 -0.523572
vn -0.851981 0.000000 -0.523572
vn -0.851981 0.000000 -0.523572
vn 0.000000 1.000000 0.000000
vn 0.000000 1.000000 0.000000
vn 0.000000 1.000000 0.000000
vn 0.523572 0.000000 -0.851981
vn 0.523572 0.000000 -0.851981
vn 0.523572 0.000000 -0.851981
vn 0.523572 0.000000 -0.851981
vn 0.523572 0.000000 -0.851981
vn 0.523572 0.000000 -0.851981
vn 0.000000 -1.000000 0.000000
vn 0.000000 -1.000000 0.000000
vn 0.000000 -1.000000 0.000000
vn -0.851981 0.000000 -0.523572
vn -0.851981 0.000000 -0.523572
vn -0.851981 0.000000 -0.523572
vn 0.000000 1.000000 0.000000
vn 0.000000 1.000000 0.000000
vn 0.000000 1.000000 0.000000
vn 0.851981 0.000000 0.523572
vn 0.851981 0.000000 0.523572
vn 0.851981 0.000000 0.523572
vn 0.000000 -1.000000 0.000000
vn 0.000000 -1.000000 0.000000
vn 0.000000 -1.000000 0.000000
s off
g Mesh11
usemtl box1:Green_0_0
f 1//1 2//2 3//3
f 5//4 1//5 3//6
f 5//7 3//8 6//9
f 4//10 5//11 6//12
f 8//13 4//14 6//15
f 7//16 4//17 8//18
f 8//19 2//20 7//21
f 5//22 7//23 2//24
f 5//25 4//26 7//27
f 6//28 3//29 8//30
f 8//31 3//32 2//33
f 2//34 1//35 5//36
