# This file uses centimeters as units for non-parametric coordinates.

mtllib round3b6.mtl
g default
v -114.452426 0.397293 30.863184
v -76.978252 0.397293 105.629492
v -114.452426 40.397293 30.863184
v -74.624943 40.397293 104.449973
v -112.099118 0.397293 29.683665
v -112.099118 40.397293 29.683665
v -74.624943 0.397293 104.449973
v -76.978252 40.397293 105.629492
vn -0.893991 0.000000 0.448084
vn -0.893991 0.000000 0.448084
vn -0.893991 0.000000 0.448084
vn -0.448084 0.000000 -0.893991
vn -0.448084 0.000000 -0.893991
vn -0.448084 0.000000 -0.893991
vn -0.448084 0.000000 -0.893991
vn -0.448084 0.000000 -0.893991
vn -0.448084 0.000000 -0.893991
vn 0.893991 0.000000 -0.448084
vn 0.893991 0.000000 -0.448084
vn 0.893991 0.000000 -0.448084
vn 0.000000 1.000000 0.000000
vn 0.000000 1.000000 0.000000
vn 0.000000 1.000000 0.000000
vn 0.448084 0.000000 0.893991
vn 0.448084 0.000000 0.893991
vn 0.448084 0.000000 0.893991
vn 0.448084 0.000000 0.893991
vn 0.448084 0.000000 0.893991
vn 0.448084 0.000000 0.893991
vn 0.000000 -1.000000 0.000000
vn 0.000000 -1.000000 0.000000
vn 0.000000 -1.000000 0.000000
vn 0.893991 0.000000 -0.448084
vn 0.893991 0.000000 -0.448084
vn 0.893991 0.000000 -0.448084
vn 0.000000 1.000000 0.000000
vn 0.000000 1.000000 0.000000
vn 0.000000 1.000000 0.000000
vn -0.893991 0.000000 0.448084
vn -0.893991 0.000000 0.448084
vn -0.893991 0.000000 0.448084
vn 0.000000 -1.000000 0.000000
vn 0.000000 -1.000000 0.000000
vn 0.000000 -1.000000 0.000000
s off
g Mesh6
usemtl box1:Green_0_0
f 1//1 2//2 3//3
f 5//4 1//5 3//6
f 5//7 3//8 6//9
f 4//10 5//11 6//12
f 8//13 4//14 6//15
f 7//16 4//17 8//18
f 8//19 2//20 7//21
f 5//22 7//23 2//24
f 5//25 4//26 7//27
f 6//28 3//29 8//30
f 8//31 3//32 2//33
f 2//34 1//35 5//36
