newmtl box:Green_0_0
illum 4
Kd 0.13 0.73 0.30
Ka 0.40 0.40 0.40
Tf 1.00 1.00 1.00
Ni 1.00
newmtl box1:Green_0_0
illum 4
Kd 0.13 0.73 0.30
Ka 0.40 0.40 0.40
Tf 1.00 1.00 1.00
Ni 1.00
newmtl round3b9:initialShadingGroup
illum 4
Kd 0.00 0.00 0.00
Ka 0.00 0.00 0.00
Tf 1.00 1.00 1.00
map_Kd iceland-ice-cave-textures-1-sarah-reintjes-tolen.jpg
Ni 1.00
newmtl the_cave:initialShadingGroup
illum 4
Kd 0.00 0.00 0.00
Ka 0.00 0.00 0.00
Tf 1.00 1.00 1.00
map_Kd iceland-ice-cave-textures-1-sarah-reintjes-tolen.jpg
Ni 1.00
newmtl the_cave:lambert3SG
illum 4
Kd 0.00 0.00 0.00
Ka 0.00 0.00 0.00
Tf 1.00 1.00 1.00
map_Kd iceland-ice-cave-textures-1-sarah-reintjes-tolen.jpg
Ni 1.00
newmtl the_cave:lambert4SG
illum 4
Kd 0.00 0.00 0.00
Ka 0.00 0.00 0.00
Tf 1.00 1.00 1.00
map_Kd 1271.jpg
Ni 1.00
newmtl vridMazrek:Mat_0
illum 4
Kd 0.00 0.00 0.00
Ka 0.40 0.40 0.40
Tf 1.00 1.00 1.00
map_Kd 1481820188_2048x2048_6195987693227547908.png
Ni 1.00
