# This file uses centimeters as units for non-parametric coordinates.

mtllib round2b5.mtl
g default
v -65.677471 0.397293 -34.425617
v -26.646669 0.397293 -66.416242
v -65.677471 40.397293 -34.425617
v -28.379453 40.397293 -68.530360
v -67.410255 0.397293 -36.539734
v -67.410255 40.397293 -36.539734
v -28.379453 0.397293 -68.530360
v -26.646669 40.397293 -66.416242
vn 0.633906 0.000000 0.773410
vn 0.633906 0.000000 0.773410
vn 0.633906 0.000000 0.773410
vn -0.773410 0.000000 0.633906
vn -0.773410 0.000000 0.633906
vn -0.773410 0.000000 0.633906
vn -0.773410 0.000000 0.633906
vn -0.773410 0.000000 0.633906
vn -0.773410 0.000000 0.633906
vn -0.633906 0.000000 -0.773410
vn -0.633906 0.000000 -0.773410
vn -0.633906 0.000000 -0.773410
vn 0.000000 1.000000 0.000000
vn 0.000000 1.000000 0.000000
vn 0.000000 1.000000 0.000000
vn 0.773410 0.000000 -0.633906
vn 0.773410 0.000000 -0.633906
vn 0.773410 0.000000 -0.633906
vn 0.773410 0.000000 -0.633906
vn 0.773410 0.000000 -0.633906
vn 0.773410 0.000000 -0.633906
vn 0.000000 -1.000000 0.000000
vn 0.000000 -1.000000 0.000000
vn 0.000000 -1.000000 0.000000
vn -0.633906 0.000000 -0.773410
vn -0.633906 0.000000 -0.773410
vn -0.633906 0.000000 -0.773410
vn 0.000000 1.000000 0.000000
vn 0.000000 1.000000 0.000000
vn 0.000000 1.000000 0.000000
vn 0.633906 0.000000 0.773410
vn 0.633906 0.000000 0.773410
vn 0.633906 0.000000 0.773410
vn 0.000000 -1.000000 0.000000
vn 0.000000 -1.000000 0.000000
vn 0.000000 -1.000000 0.000000
s off
g Mesh9
usemtl box1:Green_0_0
f 1//1 2//2 3//3
f 5//4 1//5 3//6
f 5//7 3//8 6//9
f 4//10 5//11 6//12
f 8//13 4//14 6//15
f 7//16 4//17 8//18
f 8//19 2//20 7//21
f 5//22 7//23 2//24
f 5//25 4//26 7//27
f 6//28 3//29 8//30
f 8//31 3//32 2//33
f 2//34 1//35 5//36
