# This file uses centimeters as units for non-parametric coordinates.

mtllib round2b9.mtl
g default
v -12.821671 0.397293 76.355506
v 38.708905 0.397293 72.327261
v -12.821671 40.397293 76.355506
v 38.567924 40.397293 70.523784
v -12.962652 0.397293 74.552028
v -12.962652 40.397293 74.552028
v 38.567924 0.397293 70.523784
v 38.708905 40.397293 72.327261
vn 0.077934 0.000000 0.996958
vn 0.077934 0.000000 0.996958
vn 0.077934 0.000000 0.996958
vn -0.996958 0.000000 0.077934
vn -0.996958 0.000000 0.077934
vn -0.996958 0.000000 0.077934
vn -0.996958 0.000000 0.077934
vn -0.996958 0.000000 0.077934
vn -0.996958 0.000000 0.077934
vn -0.077934 0.000000 -0.996958
vn -0.077934 0.000000 -0.996958
vn -0.077934 0.000000 -0.996958
vn 0.000000 1.000000 0.000000
vn 0.000000 1.000000 0.000000
vn 0.000000 1.000000 0.000000
vn 0.996958 0.000000 -0.077934
vn 0.996958 0.000000 -0.077934
vn 0.996958 0.000000 -0.077934
vn 0.996958 0.000000 -0.077934
vn 0.996958 0.000000 -0.077934
vn 0.996958 0.000000 -0.077934
vn 0.000000 -1.000000 0.000000
vn 0.000000 -1.000000 0.000000
vn 0.000000 -1.000000 0.000000
vn -0.077934 0.000000 -0.996958
vn -0.077934 0.000000 -0.996958
vn -0.077934 0.000000 -0.996958
vn 0.000000 1.000000 0.000000
vn 0.000000 1.000000 0.000000
vn 0.000000 1.000000 0.000000
vn 0.077934 0.000000 0.996958
vn 0.077934 0.000000 0.996958
vn 0.077934 0.000000 0.996958
vn 0.000000 -1.000000 0.000000
vn 0.000000 -1.000000 0.000000
vn 0.000000 -1.000000 0.000000
s off
g Mesh12
usemtl box1:Green_0_0
f 1//1 2//2 3//3
f 5//4 1//5 3//6
f 5//7 3//8 6//9
f 4//10 5//11 6//12
f 8//13 4//14 6//15
f 7//16 4//17 8//18
f 8//19 2//20 7//21
f 5//22 7//23 2//24
f 5//25 4//26 7//27
f 6//28 3//29 8//30
f 8//31 3//32 2//33
f 2//34 1//35 5//36
