# Exported from 3D Builder
mtllib brick.mtl

o Object.1
v -19.999001 -20.000000 39.998001
v 19.999001 -20.000000 39.998001
v -19.999001 20.000000 39.998001
v 19.999001 20.000000 0.000000
v -19.999001 -20.000000 0.000000
v -19.999001 20.000000 0.000000
v 19.999001 -20.000000 0.000000
v 19.999001 20.000000 39.998001

vt 0.000000 0.000000
vt 1.000000 0.000000
vt 0.000000 1.000000
vt 1.000000 1.000000

usemtl Mat_0
f 1/1 2/2 3/3
f 8/4 3/3 2/2

vt 1.000000 1.000000
vt 0.000000 1.000000
vt 0.000000 -0.000000
vt 1.000000 -0.000000

usemtl Mat_0
f 5/7 7/8 2/5
f 2/5 1/6 5/7

vt 1.000000 1.000000
vt 0.000000 1.000000
vt 0.000000 0.000000
vt 1.000000 0.000000

usemtl Mat_0
f 8/9 2/10 7/11
f 7/11 4/12 8/9

vt 1.000000 -0.000000
vt 1.000000 1.000000
vt 0.000000 1.000000
vt 0.000000 -0.000000

usemtl Mat_0
f 6/13 3/14 8/15
f 8/15 4/16 6/13

vt 1.000000 0.000000
vt 1.000000 1.000000
vt 0.000000 1.000000
vt 0.000000 0.000000

usemtl Mat_0
f 5/17 3/19 6/20
f 5/17 1/18 3/19

vt 0.000000 1.000000
vt 1.000000 0.000000
vt 1.000000 1.000000
vt 0.000000 0.000000

usemtl Mat_0
f 4/21 5/22 6/23
f 5/22 4/21 7/24

