newmtl box:Green_0_0
illum 4
Kd 0.13 0.73 0.30
Ka 0.40 0.40 0.40
Tf 1.00 1.00 1.00
Ni 1.00
newmtl round1b1:Green_0
illum 4
Kd 0.13 0.73 0.30
Ka 0.40 0.40 0.40
Tf 1.00 1.00 1.00
Ni 1.00
newmtl round1b2:Green_0
illum 4
Kd 0.13 0.73 0.30
Ka 0.40 0.40 0.40
Tf 1.00 1.00 1.00
Ni 1.00
newmtl round1b3:Green_0
illum 4
Kd 0.13 0.73 0.30
Ka 0.40 0.40 0.40
Tf 1.00 1.00 1.00
Ni 1.00
newmtl round1b4:Green_0
illum 4
Kd 0.13 0.73 0.30
Ka 0.40 0.40 0.40
Tf 1.00 1.00 1.00
Ni 1.00
newmtl round1b5:Green_0
illum 4
Kd 0.13 0.73 0.30
Ka 0.40 0.40 0.40
Tf 1.00 1.00 1.00
Ni 1.00
newmtl round1b6:Green_0
illum 4
Kd 0.13 0.73 0.30
Ka 0.40 0.40 0.40
Tf 1.00 1.00 1.00
Ni 1.00
newmtl round1b8:Green_0
illum 4
Kd 0.13 0.73 0.30
Ka 0.40 0.40 0.40
Tf 1.00 1.00 1.00
Ni 1.00
newmtl round1b9:Green_0
illum 4
Kd 0.13 0.73 0.30
Ka 0.40 0.40 0.40
Tf 1.00 1.00 1.00
Ni 1.00
newmtl the_cave:initialShadingGroup
illum 4
Kd 0.00 0.00 0.00
Ka 0.00 0.00 0.00
Tf 1.00 1.00 1.00
map_Kd iceland-ice-cave-textures-1-sarah-reintjes-tolen.jpg
Ni 1.00
newmtl the_cave:lambert3SG
illum 4
Kd 0.00 0.00 0.00
Ka 0.00 0.00 0.00
Tf 1.00 1.00 1.00
map_Kd iceland-ice-cave-textures-1-sarah-reintjes-tolen.jpg
Ni 1.00
newmtl the_cave:lambert4SG
illum 4
Kd 0.00 0.00 0.00
Ka 0.00 0.00 0.00
Tf 1.00 1.00 1.00
map_Kd 1271.jpg
Ni 1.00
