# Exported from 3D Builder

newmtl Default_0
Kd 0.737255 0.737255 0.737255

newmtl creature_9:blinn6SG_0
Kd 0.000000 0.000000 0.000000

newmtl Mat_0
Kd 1.000000 1.000000 1.000000
map_Kd lungtheeeee (1).png

newmtl Mat_1
Kd 1.000000 1.000000 1.000000
map_Kd Flesh-texture834.jpg

newmtl Mat_2
Kd 1.000000 1.000000 1.000000
map_Kd 1271.jpg
