newmtl the_cave:initialShadingGroup
illum 4
Kd 1.00 1.00 1.00
Ka 0.00 0.00 0.00
Tf 1.00 1.00 1.00
map_Kd iceland-ice-cave-textures-1-sarah-reintjes-tolen.jpg
Ni 1.00
newmtl the_cave:lambert3SG
illum 4
Kd 1.00 1.00 1.00
Ka 0.00 0.00 0.00
Tf 1.00 1.00 1.00
map_Kd iceland-ice-cave-textures-1-sarah-reintjes-tolen.jpg
Ni 1.00
newmtl the_cave:lambert4SG
illum 4
Kd 1.00 1.00 1.00
Ka 0.00 0.00 0.00
Tf 1.00 1.00 1.00
map_Kd 1271.jpg
Ni 1.00
