# Exported from 3D Builder
mtllib wall1.mtl

o Object.1
v -5.000000 -0.000002 5.000000
v 5.000000 -0.000002 5.000000
v -5.000000 20.000000 5.000000
v 5.000000 20.000000 -5.000000
v -5.000000 -0.000002 -5.000000
v -5.000000 20.000000 -5.000000
v 5.000000 -0.000002 -5.000000
v 5.000000 20.000000 5.000000

vt 1.000000 1.000000
vt 0.000000 1.000000
vt 1.000000 0.000000
vt 0.000000 0.000000

usemtl Mat_0
f 1/4 2/3 3/2
f 8/1 3/2 2/3

vt 1.000000 1.000000
vt 0.000000 1.000000
vt 0.000000 -0.000000
vt 1.000000 -0.000000

usemtl Mat_0
f 5/7 7/8 2/5
f 2/5 1/6 5/7

vt 1.000000 0.000000
vt 0.000000 1.000000
vt 0.000000 0.000000
vt 1.000000 1.000000

usemtl Mat_0
f 5/9 3/10 6/11
f 5/9 1/12 3/10

vt 0.000000 0.000000
vt 1.000000 0.000000
vt 1.000000 1.000000
vt 0.000000 1.000000

usemtl Mat_0
f 8/15 2/16 7/13
f 7/13 4/14 8/15

vt 0.000000 1.000000
vt 0.000000 -0.000000
vt 1.000000 -0.000000
vt 1.000000 1.000000

usemtl Mat_0
f 6/19 3/20 8/17
f 8/17 4/18 6/19

vt 1.000000 0.000000
vt 0.000000 1.000000
vt 0.000000 0.000000
vt 1.000000 1.000000

usemtl Mat_0
f 4/22 5/21 6/24
f 5/21 4/22 7/23

